{
  "project_info": {
    "project_number": "642784118946",
    "firebase_url": "https://medicare-fee8d.firebaseio.com",
    "project_id": "medicare-fee8d",
    "storage_bucket": "medicare-fee8d.appspot.com"
  },
  "client": [
    {
      "client_info": {
        "mobilesdk_app_id": "1:642784118946:android:1587705c9db9464b",
        "android_client_info": {
          "package_name": "kr.co.hi.medicare"
        }
      },
      "oauth_client": [
        {
          "client_id": "642784118946-soq6v43g8t4500vi9mgminqlq61uuck5.apps.googleusercontent.com",
          "client_type": 1,
          "android_info": {
            "package_name": "kr.co.hi.medicare",
            "certificate_hash": "ce2eeb3d22f462a101122bc5dc75e805687a2eee"
          }
        },
        {
          "client_id": "642784118946-qmi82o5i9e9uevg8ks1h3kpdf2nfgf5k.apps.googleusercontent.com",
          "client_type": 3
        }
      ],
      "api_key": [
        {
          "current_key": "AIzaSyBFsg81ishkJycgxJRc3Y_tyjeK4fz_JOA"
        }
      ],
      "services": {
        "appinvite_service": {
          "other_platform_oauth_client": [
            {
              "client_id": "642784118946-qmi82o5i9e9uevg8ks1h3kpdf2nfgf5k.apps.googleusercontent.com",
              "client_type": 3
            },
            {
              "client_id": "642784118946-90079eq96f7t2gigoj0dk423m2ceqcs2.apps.googleusercontent.com",
              "client_type": 2,
              "ios_info": {
                "bundle_id": "com.gchealthcare.medicare",
                "app_store_id": "1112080490"
              }
            }
          ]
        }
      }
    }
  ],
  "configuration_version": "1"
}